{
  "response": {
    "status": "ok",
    "userTier": "free",
    "total": 77793,
    "startIndex": 1,
    "pageSize": 10,
    "currentPage": 1,
    "pages": 7780,
    "orderBy": "newest",
    "results": [
      {
        "id": "sport\/2014\/aug\/15\/adam-adam-gemili-gold-european-athletics-championships-2014",
        "sectionId": "sport",
        "sectionName": "Sport",
        "webPublicationDate": "2014-08-15T21:57:00Z",
        "webTitle": "Adam Gemili runs under 20 seconds to take European 200m gold medal",
        "webUrl": "http:\/\/www.theguardian.com\/sport\/2014\/aug\/15\/adam-adam-gemili-gold-european-athletics-championships-2014",
        "apiUrl": "http:\/\/content.guardianapis.com\/sport\/2014\/aug\/15\/adam-adam-gemili-gold-european-athletics-championships-2014",
        "fields": {
          "newspaperPageNumber": "12",
          "trailText": "The British sprinter Adam Gemili landed his first major title when winning the 200m in 19.98 from the 2010 champion, Christophe Lema\u00eetre",
          "headline": "Adam Gemili runs under 20 seconds to take European 200m gold medal",
          "showInRelatedContent": "true",
          "lastModified": "2014-08-15T21:57:54Z",
          "hasStoryPackage": "true",
          "score": "0.08366056",
          "standfirst": "\u2022 British sprinter lands first major title in 19.98sec<br \/>\u2022 2010 champion Christophe Lema\u00eetre is runner-up",
          "shortUrl": "http:\/\/gu.com\/p\/4vnm9",
          "thumbnail": "http:\/\/static.guim.co.uk\/sys-images\/Sport\/Pix\/columnists\/2014\/8\/15\/1408137022592\/Adam-Gemili-European-Athl-006.jpg",
          "wordcount": "703",
          "commentable": "false",
          "allowUgc": "false",
          "isPremoderated": "false",
          "byline": "Sean Ingle at Stadion Letzigrund",
          "publication": "The Guardian",
          "newspaperEditionDate": "2014-08-16",
          "shouldHideAdverts": "false",
          "liveBloggingNow": "false",
          "commentCloseDate": "2014-08-18T21:12:54Z"
        }
      },
      {
        "id": "environment\/2014\/aug\/15\/alarm-call-golden-plover-talsarnau-gwynedd-wildfowling",
        "sectionId": "environment",
        "sectionName": "Environment",
        "webPublicationDate": "2014-08-15T20:00:16Z",
        "webTitle": "Country diary: Talsarnau, Gwynedd: Alarm call from the plover, as the wildfowling season approaches",
        "webUrl": "http:\/\/www.theguardian.com\/environment\/2014\/aug\/15\/alarm-call-golden-plover-talsarnau-gwynedd-wildfowling",
        "apiUrl": "http:\/\/content.guardianapis.com\/environment\/2014\/aug\/15\/alarm-call-golden-plover-talsarnau-gwynedd-wildfowling",
        "fields": {
          "newspaperPageNumber": "36",
          "trailText": "<strong>Country diary: Talsarnau, Gwynedd: <\/strong>Soon these lovely birds will quit the hills and head to the estuary below, where so many species have been decimated",
          "headline": "Alarm call from the plover, as the wildfowling season approaches",
          "showInRelatedContent": "true",
          "lastModified": "2014-08-15T20:00:14Z",
          "hasStoryPackage": "false",
          "score": "0.11155668",
          "standfirst": "<strong>Talsarnau, Gwynedd:<\/strong> Soon these lovely birds will quit the hills and head to the estuary below, where so many species have been decimated",
          "shortUrl": "http:\/\/gu.com\/p\/4vmen",
          "thumbnail": "http:\/\/static.guim.co.uk\/sys-images\/Guardian\/Pix\/pictures\/2014\/8\/15\/1408098130007\/Guardian-006.jpg",
          "wordcount": "331",
          "commentable": "true",
          "allowUgc": "false",
          "isPremoderated": "false",
          "byline": "Jim Perrin",
          "publication": "The Guardian",
          "newspaperEditionDate": "2014-08-16",
          "shouldHideAdverts": "false",
          "liveBloggingNow": "false",
          "commentCloseDate": "2014-08-18T20:00:16Z"
        }
      },
      {
        "id": "sport\/2014\/aug\/15\/paul-collingwood-durham-lancashire-county-championship",
        "sectionId": "sport",
        "sectionName": "Sport",
        "webPublicationDate": "2014-08-15T18:13:00Z",
        "webTitle": "Paul Collingwood misses out as his Durham side make hay at Lancashire",
        "webUrl": "http:\/\/www.theguardian.com\/sport\/2014\/aug\/15\/paul-collingwood-durham-lancashire-county-championship",
        "apiUrl": "http:\/\/content.guardianapis.com\/sport\/2014\/aug\/15\/paul-collingwood-durham-lancashire-county-championship",
        "fields": {
          "trailText": "Paul Collingwood won the toss but missed out with the bat as his Durham side made hay at Lancashire",
          "headline": "Paul Collingwood misses out as his Durham side make hay at Lancashire",
          "showInRelatedContent": "true",
          "lastModified": "2014-08-15T18:17:04Z",
          "hasStoryPackage": "true",
          "score": "0.08364479",
          "standfirst": "Durham 329-8 v Lancashire",
          "shortUrl": "http:\/\/gu.com\/p\/4vnkc",
          "thumbnail": "http:\/\/static.guim.co.uk\/sys-images\/Sport\/Pix\/columnists\/2014\/8\/15\/1408124968118\/simon-kerrigan-004.jpg",
          "wordcount": "612",
          "commentable": "true",
          "allowUgc": "false",
          "isPremoderated": "false",
          "byline": "Andy Wilson at Old Trafford",
          "publication": "The Guardian",
          "newspaperEditionDate": "2014-08-16",
          "shouldHideAdverts": "false",
          "liveBloggingNow": "false",
          "commentCloseDate": "2014-08-18T17:54:29Z"
        }
      },
      {
        "id": "sport\/live\/2014\/aug\/15\/england-v-india-fifth-test-day-one-live",
        "sectionId": "sport",
        "sectionName": "Sport",
        "webPublicationDate": "2014-08-15T18:05:53Z",
        "webTitle": "England v India: fifth Test, day one \u2013\u00a0as it happened",
        "webUrl": "http:\/\/www.theguardian.com\/sport\/live\/2014\/aug\/15\/england-v-india-fifth-test-day-one-live",
        "apiUrl": "http:\/\/content.guardianapis.com\/sport\/live\/2014\/aug\/15\/england-v-india-fifth-test-day-one-live",
        "fields": {
          "trailText": "Another dreadful batting performance from India put England in apparent control of the fifth Test at the end of day one <br>",
          "headline": "England v India: fifth Test, day one \u2013\u00a0as it happened",
          "showInRelatedContent": "true",
          "lastModified": "2014-08-15T21:24:05Z",
          "hasStoryPackage": "true",
          "score": "0.056868404",
          "standfirst": "<p>Another dreadful batting performance from India put England in apparent control of the fifth Test at the end of day one<\/p><p><a href=\"http:\/\/www.theguardian.com\/sport\/blog\/2014\/aug\/15\/joy-of-six-cricket-fielding\">The Joy of Six: great moments in cricket fielding<\/a><br><\/p>",
          "displayHint": "news",
          "shortUrl": "http:\/\/gu.com\/p\/4vmta",
          "thumbnail": "http:\/\/static.guim.co.uk\/sys-images\/Guardian\/Pix\/pictures\/2014\/8\/15\/1408126024322\/465c7bfd-f85b-4aee-b4d3-bee7681e7f2d-140x84.jpeg",
          "wordcount": "7301",
          "commentable": "false",
          "allowUgc": "false",
          "isPremoderated": "false",
          "byline": "John Ashdown (morning session and the first hour of the evening) and Simon Burnton (afternoon session and the final hour of the evening)",
          "displayRelativeTimes": "false",
          "publication": "theguardian.com",
          "shouldHideAdverts": "false",
          "liveBloggingNow": "false",
          "commentCloseDate": "2014-08-18T09:21:25Z"
        }
      },
      {
        "id": "football\/2014\/aug\/15\/arsenal-crystal-palace-match-preview",
        "sectionId": "football",
        "sectionName": "Football",
        "webPublicationDate": "2014-08-15T17:30:57Z",
        "webTitle": "Arsenal v Crystal Palace: match preview",
        "webUrl": "http:\/\/www.theguardian.com\/football\/2014\/aug\/15\/arsenal-crystal-palace-match-preview",
        "apiUrl": "http:\/\/content.guardianapis.com\/football\/2014\/aug\/15\/arsenal-crystal-palace-match-preview",
        "fields": {
          "newspaperPageNumber": "6",
          "trailText": "After Tony Pulis\u2019s exit, Crystal Palace face a difficult challenge playing at Arsenal, who could hand a debut to Alexis S\u00e1nchez",
          "headline": "Arsenal v Crystal Palace: match preview",
          "showInRelatedContent": "true",
          "lastModified": "2014-08-15T17:44:45Z",
          "hasStoryPackage": "false",
          "score": "0.111546166",
          "shortUrl": "http:\/\/gu.com\/p\/4vnk2",
          "wordcount": "183",
          "commentable": "false",
          "allowUgc": "false",
          "isPremoderated": "false",
          "publication": "The Guardian",
          "newspaperEditionDate": "2014-08-16",
          "shouldHideAdverts": "false",
          "liveBloggingNow": "false",
          "commentCloseDate": "2014-08-18T17:30:58Z"
        }
      },
      {
        "id": "football\/2014\/aug\/15\/liverpool-southampton-match-preview",
        "sectionId": "football",
        "sectionName": "Football",
        "webPublicationDate": "2014-08-15T16:44:21Z",
        "webTitle": "Liverpool v Southampton: match preview",
        "webUrl": "http:\/\/www.theguardian.com\/football\/2014\/aug\/15\/liverpool-southampton-match-preview",
        "apiUrl": "http:\/\/content.guardianapis.com\/football\/2014\/aug\/15\/liverpool-southampton-match-preview",
        "fields": {
          "newspaperPageNumber": "6",
          "trailText": "Dejan Lovren is the only former Southampton player in line to start for Liverpool against his old club \u2013 Adam Lallana is injured and Rickie Lambert is expected to be on the bench",
          "headline": "Liverpool v Southampton: match preview",
          "showInRelatedContent": "true",
          "lastModified": "2014-08-15T17:11:57Z",
          "hasStoryPackage": "true",
          "score": "0.11154289",
          "shortUrl": "http:\/\/gu.com\/p\/4vntk",
          "wordcount": "195",
          "commentable": "false",
          "allowUgc": "false",
          "isPremoderated": "false",
          "publication": "The Guardian",
          "newspaperEditionDate": "2014-08-16",
          "shouldHideAdverts": "false",
          "liveBloggingNow": "false",
          "commentCloseDate": "2014-08-18T16:44:23Z"
        }
      },
      {
        "id": "football\/2014\/aug\/15\/burnley-chelsea-match-preview",
        "sectionId": "football",
        "sectionName": "Football",
        "webPublicationDate": "2014-08-15T16:32:04Z",
        "webTitle": "Burnley v Chelsea: match preview",
        "webUrl": "http:\/\/www.theguardian.com\/football\/2014\/aug\/15\/burnley-chelsea-match-preview",
        "apiUrl": "http:\/\/content.guardianapis.com\/football\/2014\/aug\/15\/burnley-chelsea-match-preview",
        "fields": {
          "newspaperPageNumber": "6",
          "trailText": "New signings Diego Costa, Cesc F\u00e1bregas and Filipe Lu\u00eds are all expected to start for Chelsea at Burnley on Monday night",
          "headline": "Burnley v Chelsea: match preview",
          "showInRelatedContent": "true",
          "lastModified": "2014-08-15T17:08:38Z",
          "hasStoryPackage": "true",
          "score": "0.11154203",
          "shortUrl": "http:\/\/gu.com\/p\/4vnt5",
          "wordcount": "158",
          "commentable": "false",
          "allowUgc": "false",
          "isPremoderated": "false",
          "publication": "The Guardian",
          "newspaperEditionDate": "2014-08-16",
          "shouldHideAdverts": "false",
          "liveBloggingNow": "false",
          "commentCloseDate": "2014-08-18T16:32:09Z"
        }
      },
      {
        "id": "football\/2014\/aug\/15\/newcastle-united-manchester-city-match-preview",
        "sectionId": "football",
        "sectionName": "Football",
        "webPublicationDate": "2014-08-15T15:47:47Z",
        "webTitle": "Newcastle United v Manchester City: match preview",
        "webUrl": "http:\/\/www.theguardian.com\/football\/2014\/aug\/15\/newcastle-united-manchester-city-match-preview",
        "apiUrl": "http:\/\/content.guardianapis.com\/football\/2014\/aug\/15\/newcastle-united-manchester-city-match-preview",
        "fields": {
          "newspaperPageNumber": "6",
          "trailText": "Newcastle United may give debuts to Daryl Janmaat, R\u00e9my Cabella, Emmanuel Rivi\u00e8re and Jack Colback in their match against Manchester City",
          "headline": "Newcastle United v Manchester City: match preview",
          "showInRelatedContent": "true",
          "lastModified": "2014-08-15T17:24:01Z",
          "hasStoryPackage": "true",
          "score": "0.11153891",
          "shortUrl": "http:\/\/gu.com\/p\/4vngg",
          "wordcount": "213",
          "commentable": "false",
          "allowUgc": "false",
          "isPremoderated": "false",
          "publication": "The Guardian",
          "newspaperEditionDate": "2014-08-16",
          "shouldHideAdverts": "false",
          "liveBloggingNow": "false",
          "commentCloseDate": "2014-08-18T15:47:49Z"
        }
      },
      {
        "id": "football\/2014\/aug\/15\/nbc-premier-league-football-men-blazers-lasso",
        "sectionId": "football",
        "sectionName": "Football",
        "webPublicationDate": "2014-08-15T14:55:44Z",
        "webTitle": "NBC, Men in Blazers and Ted Lasso set for second season of Premier League",
        "webUrl": "http:\/\/www.theguardian.com\/football\/2014\/aug\/15\/nbc-premier-league-football-men-blazers-lasso",
        "apiUrl": "http:\/\/content.guardianapis.com\/football\/2014\/aug\/15\/nbc-premier-league-football-men-blazers-lasso",
        "fields": {
          "trailText": "With a growing audience and praise for its varied coverage, the American television network is doubling down on football",
          "headline": "NBC, Men in Blazers and Ted Lasso set for second season of Premier League",
          "showInRelatedContent": "true",
          "lastModified": "2014-08-15T14:55:44Z",
          "hasStoryPackage": "true",
          "score": "1.0484736",
          "standfirst": "<p>With a growing audience and praise for its varied coverage, the American television network is doubling down on football<\/p><ul><li><a href=\"http:\/\/www.theguardian.com\/football\/2014\/aug\/14\/premier-league-preview-nbc-pundits\">NBC pundits predict Manchester United resurgence<\/a><\/li><\/ul>",
          "shortUrl": "http:\/\/gu.com\/p\/4vnag",
          "thumbnail": "http:\/\/static.guim.co.uk\/sys-images\/Guardian\/Pix\/pictures\/2014\/8\/15\/1408113634089\/81917501-9c46-4856-bc44-f17ac94e0def-140x84.jpeg",
          "wordcount": "996",
          "commentable": "true",
          "allowUgc": "false",
          "isPremoderated": "false",
          "byline": "Graham Parker",
          "publication": "theguardian.com",
          "shouldHideAdverts": "false",
          "liveBloggingNow": "false",
          "commentCloseDate": "2014-08-18T14:00:00Z"
        }
      },
      {
        "id": "film\/2014\/aug\/15\/why-id-like-to-be-alabama-whitman-in-true-romance",
        "sectionId": "film",
        "sectionName": "Film",
        "webPublicationDate": "2014-08-15T14:36:35Z",
        "webTitle": "Why I'd like to be \u2026 Patricia Arquette in True Romance",
        "webUrl": "http:\/\/www.theguardian.com\/film\/2014\/aug\/15\/why-id-like-to-be-alabama-whitman-in-true-romance",
        "apiUrl": "http:\/\/content.guardianapis.com\/film\/2014\/aug\/15\/why-id-like-to-be-alabama-whitman-in-true-romance",
        "fields": {
          "trailText": "In the final part of our series in which Guardian writers nominate their cinematic heroes, Ellie Violet Bramley raises a Snapple to Alabama Whitman, the lovely badass who rises above the violence of Tony Scott\u2019s True Romance",
          "headline": "Why I'd like to be \u2026 Patricia Arquette in True Romance",
          "showInRelatedContent": "true",
          "lastModified": "2014-08-15T15:09:03Z",
          "hasStoryPackage": "false",
          "score": "0.09293101",
          "standfirst": "<p>In the final part of our series in which Guardian writers nominate their cinematic heroes, Ellie Violet Bramley raises a Snapple to Alabama Whitman, the lovely badass who rises above the violence of Tony Scott\u2019s True Romance<\/p><ul><li><a href=\"http:\/\/www.theguardian.com\/film\/filmblog\/2014\/jul\/02\/christian-slater-true-romance-geek-role-model\">Ben Child: Why I\u2019d like to be ... Christian Slater in True Romance<\/a><\/li><li><a href=\"http:\/\/www.theguardian.com\/film\/series\/role-model\">More from the Role Model series<\/a><br><\/li><\/ul>",
          "shortUrl": "http:\/\/gu.com\/p\/4vn9t",
          "thumbnail": "http:\/\/static.guim.co.uk\/sys-images\/Guardian\/Pix\/pictures\/2014\/8\/15\/1408110800930\/a8013d57-3775-49ef-9195-8e14919fde5b-140x84.jpeg",
          "wordcount": "497",
          "commentable": "true",
          "allowUgc": "false",
          "isPremoderated": "false",
          "byline": "Ellie Violet Bramley",
          "publication": "theguardian.com",
          "shouldHideAdverts": "false",
          "liveBloggingNow": "false",
          "commentCloseDate": "2014-08-18T14:36:36Z"
        }
      }
    ]
  }
}