{
  "response": {
    "status": "ok",
    "userTier": "free",
    "total": 73440,
    "startIndex": 1,
    "pageSize": 10,
    "currentPage": 1,
    "pages": 7344,
    "orderBy": "newest",
    "results": [
      {
        "id": "education\/2014\/aug\/15\/academy-a-level-achievements-in-context",
        "sectionId": "education",
        "sectionName": "Education",
        "webPublicationDate": "2014-08-15T18:11:55Z",
        "webTitle": "A-level achievements in context  | @guardianletters",
        "webUrl": "http:\/\/www.theguardian.com\/education\/2014\/aug\/15\/academy-a-level-achievements-in-context",
        "apiUrl": "http:\/\/content.guardianapis.com\/education\/2014\/aug\/15\/academy-a-level-achievements-in-context",
        "fields": {
          "newspaperPageNumber": "37",
          "trailText": "<strong>Letters:<\/strong> The obsession with students with cricket scores of A-levels does a disservice to state-educated pupils who could not be funded for so many subjects",
          "headline": "A-level achievements in context",
          "showInRelatedContent": "true",
          "lastModified": "2014-08-15T18:12:23Z",
          "hasStoryPackage": "true",
          "score": "0.11114214",
          "shortUrl": "http:\/\/gu.com\/p\/4vng4",
          "thumbnail": "http:\/\/static.guim.co.uk\/sys-images\/Guardian\/Pix\/pictures\/2014\/8\/15\/1408116633090\/A-level-results-Hampstead-006.jpg",
          "wordcount": "289",
          "commentable": "false",
          "allowUgc": "false",
          "isPremoderated": "false",
          "publication": "The Guardian",
          "newspaperEditionDate": "2014-08-16",
          "shouldHideAdverts": "false",
          "liveBloggingNow": "false",
          "commentCloseDate": "2014-08-18T18:12:00Z"
        }
      },
      {
        "id": "stage\/2014\/aug\/15\/helen-roberts",
        "sectionId": "stage",
        "sectionName": "Stage",
        "webPublicationDate": "2014-08-15T17:56:34Z",
        "webTitle": "Helen Roberts obituary",
        "webUrl": "http:\/\/www.theguardian.com\/stage\/2014\/aug\/15\/helen-roberts",
        "apiUrl": "http:\/\/content.guardianapis.com\/stage\/2014\/aug\/15\/helen-roberts",
        "fields": {
          "trailText": "<strong>Other lives:<\/strong> Actor who applied her talents to teaching literacy and numeracy",
          "headline": "Helen Roberts obituary",
          "showInRelatedContent": "true",
          "lastModified": "2014-08-15T18:00:42Z",
          "hasStoryPackage": "false",
          "score": "0.111141056",
          "shortUrl": "http:\/\/gu.com\/p\/4vnka",
          "thumbnail": "http:\/\/static.guim.co.uk\/sys-images\/Guardian\/Pix\/pictures\/2014\/8\/15\/1408124858988\/helen-roberts-006.jpg",
          "wordcount": "329",
          "commentable": "false",
          "allowUgc": "false",
          "isPremoderated": "false",
          "byline": "Andrew Cuthbert",
          "publication": "theguardian.com",
          "shouldHideAdverts": "false",
          "liveBloggingNow": "false",
          "commentCloseDate": "2014-08-18T17:56:34Z"
        }
      },
      {
        "id": "global-development-professionals-network\/2014\/aug\/15\/live-chat-global-development-careers-university",
        "sectionId": "global-development-professionals-network",
        "sectionName": "Global Development Professionals Network",
        "webPublicationDate": "2014-08-15T17:54:59Z",
        "webTitle": "Live Q&A: international development career advice for students",
        "webUrl": "http:\/\/www.theguardian.com\/global-development-professionals-network\/2014\/aug\/15\/live-chat-global-development-careers-university",
        "apiUrl": "http:\/\/content.guardianapis.com\/global-development-professionals-network\/2014\/aug\/15\/live-chat-global-development-careers-university",
        "fields": {
          "trailText": "Want to work in global development after you leave university? Put your questions to our panel of experts on 21 August, 1-3pm BST",
          "headline": "Live Q&A: international development career advice for students",
          "showInRelatedContent": "true",
          "lastModified": "2014-08-15T17:54:59Z",
          "hasStoryPackage": "false",
          "score": "0.10191825",
          "standfirst": "<p>Want to work in global development after you leave university? Put your questions to our expert panel on 21 August, 1-3pm BST<\/p>",
          "shortUrl": "http:\/\/gu.com\/p\/4vnjc",
          "thumbnail": "http:\/\/static.guim.co.uk\/sys-images\/Guardian\/Pix\/pictures\/2014\/8\/15\/1408123691407\/beda4558-92b2-40be-bb1e-0fc85eb9c72c-140x84.jpeg",
          "wordcount": "402",
          "commentable": "false",
          "allowUgc": "false",
          "isPremoderated": "false",
          "byline": "Holly Young",
          "publication": "theguardian.com",
          "shouldHideAdverts": "false",
          "liveBloggingNow": "false",
          "commentCloseDate": "2014-08-18T17:00:00Z"
        }
      },
      {
        "id": "society\/2014\/aug\/15\/suicide-silence-depressed-men",
        "sectionId": "society",
        "sectionName": "Society",
        "webPublicationDate": "2014-08-15T16:53:34Z",
        "webTitle": "Suicide and silence: why depressed men are dying for somebody to talk to",
        "webUrl": "http:\/\/www.theguardian.com\/society\/2014\/aug\/15\/suicide-silence-depressed-men",
        "apiUrl": "http:\/\/content.guardianapis.com\/society\/2014\/aug\/15\/suicide-silence-depressed-men",
        "fields": {
          "newspaperPageNumber": "11",
          "trailText": "<p>Suicide is the biggest killer of men under 50. For that to change, the stigma of mental illness must be challenged<\/p>",
          "headline": "Suicide and silence: why depressed men are dying for somebody to talk to",
          "showInRelatedContent": "true",
          "lastModified": "2014-08-15T17:59:06Z",
          "hasStoryPackage": "true",
          "score": "0.065023094",
          "standfirst": "Suicide is the biggest killer of men under 50. For that to change, the stigma of mental illness must be challenged",
          "shortUrl": "http:\/\/gu.com\/p\/4vtjq",
          "thumbnail": "http:\/\/static.guim.co.uk\/sys-images\/Guardian\/Pix\/pictures\/2014\/8\/8\/1407508056315\/Jake-Mills-004.jpg",
          "wordcount": "1747",
          "commentable": "true",
          "allowUgc": "false",
          "isPremoderated": "false",
          "byline": "Owen Jones",
          "publication": "The Guardian",
          "newspaperEditionDate": "2014-08-16",
          "shouldHideAdverts": "false",
          "liveBloggingNow": "false",
          "commentCloseDate": "2014-08-18T16:53:00Z"
        }
      },
      {
        "id": "stage\/2014\/aug\/15\/voytek-obituary",
        "sectionId": "stage",
        "sectionName": "Stage",
        "webPublicationDate": "2014-08-15T16:53:29Z",
        "webTitle": "Voytek obituary",
        "webUrl": "http:\/\/www.theguardian.com\/stage\/2014\/aug\/15\/voytek-obituary",
        "apiUrl": "http:\/\/content.guardianapis.com\/stage\/2014\/aug\/15\/voytek-obituary",
        "fields": {
          "newspaperPageNumber": "48",
          "trailText": "Stage and screen designer remembered for his many elegant masterstrokes",
          "headline": "Voytek obituary",
          "showInRelatedContent": "true",
          "lastModified": "2014-08-15T17:00:42Z",
          "hasStoryPackage": "false",
          "score": "0.074245796",
          "standfirst": "Stage and screen designer remembered for his many elegant masterstrokes",
          "shortUrl": "http:\/\/gu.com\/p\/4vna9",
          "thumbnail": "http:\/\/static.guim.co.uk\/sys-images\/Guardian\/Pix\/pictures\/2014\/8\/15\/1408107794943\/voytek-obituary-006.jpg",
          "wordcount": "944",
          "commentable": "true",
          "allowUgc": "false",
          "isPremoderated": "false",
          "byline": "Andrew Sanders",
          "publication": "The Guardian",
          "newspaperEditionDate": "2014-08-16",
          "shouldHideAdverts": "false",
          "liveBloggingNow": "false",
          "commentCloseDate": "2014-08-29T12:48:00Z"
        }
      },
      {
        "id": "edge-hill-university-partner-zone\/2014\/aug\/15\/is-lesson-study-the-way-forward-for-knowledge-exchange-in-teaching",
        "sectionId": "edge-hill-university-partner-zone",
        "sectionName": "Edge Hill University partner zone",
        "webPublicationDate": "2014-08-15T14:05:44Z",
        "webTitle": "Is Lesson Study the way forward for knowledge exchange in teaching?",
        "webUrl": "http:\/\/www.theguardian.com\/edge-hill-university-partner-zone\/2014\/aug\/15\/is-lesson-study-the-way-forward-for-knowledge-exchange-in-teaching",
        "apiUrl": "http:\/\/content.guardianapis.com\/edge-hill-university-partner-zone\/2014\/aug\/15\/is-lesson-study-the-way-forward-for-knowledge-exchange-in-teaching",
        "fields": {
          "trailText": "A new project taking part in the project in the north-west of England aims to improve performance and target curriculum concerns",
          "headline": "Is Lesson Study the way forward for knowledge exchange in teaching?",
          "showInRelatedContent": "true",
          "lastModified": "2014-08-15T14:05:38Z",
          "hasStoryPackage": "false",
          "score": "0.20988406",
          "standfirst": "<p>A new project taking part in the project in the north-west of England aims to improve performance and target curriculum concerns<\/p>",
          "shortUrl": "http:\/\/gu.com\/p\/4vn95",
          "thumbnail": "http:\/\/static.guim.co.uk\/sys-images\/Guardian\/Pix\/pictures\/2014\/8\/15\/1408111086941\/aa58ed79-083f-4ee6-83b2-7829a7712328-140x84.jpeg",
          "wordcount": "656",
          "commentable": "false",
          "allowUgc": "false",
          "isPremoderated": "false",
          "byline": "Edge Hill University",
          "publication": "theguardian.com",
          "shouldHideAdverts": "false",
          "liveBloggingNow": "false",
          "commentCloseDate": "2014-08-15T14:05:44Z"
        }
      },
      {
        "id": "lifeandstyle\/2014\/aug\/15\/portrait-of-the-artist-as-a-young-man",
        "sectionId": "lifeandstyle",
        "sectionName": "Life and style",
        "webPublicationDate": "2014-08-15T14:00:06Z",
        "webTitle": "Portrait of the artist as a young man",
        "webUrl": "http:\/\/www.theguardian.com\/lifeandstyle\/2014\/aug\/15\/portrait-of-the-artist-as-a-young-man",
        "apiUrl": "http:\/\/content.guardianapis.com\/lifeandstyle\/2014\/aug\/15\/portrait-of-the-artist-as-a-young-man",
        "fields": {
          "newspaperPageNumber": "4",
          "trailText": "Kieron Williamson is only 12 and already a millionaire \u2013 from the sale of his paintings. <strong>Patrick Barkham<\/strong> meets a child prodigy and his parents, who now work for him",
          "headline": "Portrait of the artist as a young man",
          "showInRelatedContent": "true",
          "lastModified": "2014-08-15T16:40:16Z",
          "hasStoryPackage": "false",
          "score": "0.06501082",
          "standfirst": "<p>Kieron Williamson is only 12 and already a millionaire \u2013 from the sale of his paintings. Patrick Barkham meets a child prodigy and his parents, who now work for him<\/p>",
          "shortUrl": "http:\/\/gu.com\/p\/4vktb",
          "thumbnail": "http:\/\/static.guim.co.uk\/sys-images\/Guardian\/Pix\/pictures\/2014\/8\/12\/1407843779910\/Kieron-Williamson-and-fam-004.jpg",
          "wordcount": "1862",
          "commentable": "true",
          "allowUgc": "false",
          "isPremoderated": "false",
          "byline": "Patrick Barkham",
          "publication": "The Guardian",
          "newspaperEditionDate": "2014-08-16",
          "shouldHideAdverts": "false",
          "liveBloggingNow": "false",
          "commentCloseDate": "2014-08-18T14:00:10Z"
        }
      },
      {
        "id": "artanddesign\/2014\/aug\/15\/mural-ajanta-caves-india-birth-indian-art",
        "sectionId": "artanddesign",
        "sectionName": "Art and design",
        "webPublicationDate": "2014-08-15T14:00:00Z",
        "webTitle": "The Ajanta cave murals: 'nothing&nbsp;less&nbsp;than the birth of Indian art'",
        "webUrl": "http:\/\/www.theguardian.com\/artanddesign\/2014\/aug\/15\/mural-ajanta-caves-india-birth-indian-art",
        "apiUrl": "http:\/\/content.guardianapis.com\/artanddesign\/2014\/aug\/15\/mural-ajanta-caves-india-birth-indian-art",
        "fields": {
          "newspaperPageNumber": "14",
          "trailText": "<p>The paintings are possibly the finest surviving picture galleries from the ancient world. Now, the oldest in two of the caves \u2013 hidden for decades \u2013 have been painstakingly restored to reveal their true beauty, discovers <strong>William Dalrymple<\/strong><\/p>",
          "headline": "The Ajanta cave murals: 'nothing less than the birth of Indian art'",
          "showInRelatedContent": "true",
          "lastModified": "2014-08-15T17:10:42Z",
          "hasStoryPackage": "false",
          "score": "0.065010816",
          "standfirst": "The paintings are possibly the finest surviving picture galleries from the ancient world. Now, the oldest in two of the caves \u2013 hidden for decades \u2013 have been painstakingly restored to reveal their true beauty",
          "shortUrl": "http:\/\/gu.com\/p\/4vmdv",
          "thumbnail": "http:\/\/static.guim.co.uk\/sys-images\/Books\/Pix\/pictures\/2014\/8\/14\/1408017144964\/Detail-from-one-of-the-mu-006.jpg",
          "wordcount": "2404",
          "commentable": "true",
          "allowUgc": "false",
          "isPremoderated": "false",
          "byline": "William Dalrymple",
          "publication": "The Guardian",
          "newspaperEditionDate": "2014-08-16",
          "shouldHideAdverts": "false",
          "liveBloggingNow": "false",
          "commentCloseDate": "2014-08-22T11:32:00Z"
        }
      },
      {
        "id": "childrens-books-site\/2014\/aug\/15\/how-do-i-become-book-illustrator-mark-weighton-boyface",
        "sectionId": "childrens-books-site",
        "sectionName": "Children's books",
        "webPublicationDate": "2014-08-15T14:00:00Z",
        "webTitle": "How do I become an illustrator? Artist Mark Weighton shares his tips",
        "webUrl": "http:\/\/www.theguardian.com\/childrens-books-site\/2014\/aug\/15\/how-do-i-become-book-illustrator-mark-weighton-boyface",
        "apiUrl": "http:\/\/content.guardianapis.com\/childrens-books-site\/2014\/aug\/15\/how-do-i-become-book-illustrator-mark-weighton-boyface",
        "fields": {
          "trailText": "<p>Do you want to illustrate books one day? Mark Weighton is the inventive illustrator behind the wonderful Boyface series \u2013 here he shares his top tips on how to get his job!<\/p>",
          "headline": "How do I become an illustrator? Artist Mark Weighton shares his tips",
          "showInRelatedContent": "true",
          "lastModified": "2014-08-15T14:20:42Z",
          "hasStoryPackage": "false",
          "score": "0.08345622",
          "standfirst": "Do you want to illustrate books one day? Mark Weighton is the inventive illustrator behind the wonderful Boyface series \u2013 here he shares his top tips on how to get his job!<br \/><br \/><a href=\"http:\/\/www.theguardian.com\/childrens-books-site\/2014\/aug\/15\/how-do-i-become-author-james-campbell-boyface\">\u2022 Love Boyface? Read the author, James Campbell's tips for becoming a writer!<\/a>",
          "shortUrl": "http:\/\/gu.com\/p\/4vn65",
          "thumbnail": "http:\/\/static.guim.co.uk\/sys-images\/Guardian\/Pix\/pictures\/2014\/8\/15\/1408099730666\/Weighton-illustration-2-005.jpg",
          "wordcount": "809",
          "commentable": "false",
          "allowUgc": "false",
          "isPremoderated": "false",
          "byline": "Mark Weighton",
          "publication": "theguardian.com",
          "shouldHideAdverts": "false",
          "liveBloggingNow": "false",
          "commentCloseDate": "2014-08-15T14:00:03Z"
        }
      },
      {
        "id": "sport\/2014\/aug\/15\/jo-pavey-gold-superwoman-age",
        "sectionId": "sport",
        "sectionName": "Sport",
        "webPublicationDate": "2014-08-15T13:55:05Z",
        "webTitle": "Jo Pavey: golden years of the long-distance superwoman",
        "webUrl": "http:\/\/www.theguardian.com\/sport\/2014\/aug\/15\/jo-pavey-gold-superwoman-age",
        "apiUrl": "http:\/\/content.guardianapis.com\/sport\/2014\/aug\/15\/jo-pavey-gold-superwoman-age",
        "fields": {
          "newspaperPageNumber": "14",
          "trailText": "British runner who won European 10,000m gold at 40 has no plans to retire but is aiming for Rio 2016 \u2013 and beyond",
          "headline": "Jo Pavey: golden years of the long-distance superwoman",
          "showInRelatedContent": "true",
          "lastModified": "2014-08-15T22:36:57Z",
          "hasStoryPackage": "false",
          "score": "0.06962182",
          "standfirst": "British runner who won European 10,000m gold at 40 has no plans to retire but is aiming for Rio 2016 \u2013 and beyond",
          "shortUrl": "http:\/\/gu.com\/p\/4vnae",
          "thumbnail": "http:\/\/static.guim.co.uk\/sys-images\/Guardian\/Pix\/pictures\/2014\/8\/15\/1408108374589\/Jo-Pavey-wins-10000m-006.jpg",
          "wordcount": "1634",
          "commentable": "false",
          "allowUgc": "false",
          "isPremoderated": "false",
          "byline": "Alexandra Topping",
          "publication": "The Guardian",
          "newspaperEditionDate": "2014-08-16",
          "shouldHideAdverts": "false",
          "liveBloggingNow": "false",
          "commentCloseDate": "2014-08-18T13:55:05Z"
        }
      }
    ]
  }
}